[gd_scene load_steps=7 format=3 uid="uid://bk7psiy8p7erk"]

[ext_resource type="Script" path="res://special_effects/particles/complete_systems/Fire.gd" id="1_ag3wp"]
[ext_resource type="PackedScene" uid="uid://d135sk87u60gf" path="res://special_effects/particles/ScaleReactiveParticleSystem.tscn" id="1_tjeko"]
[ext_resource type="Material" uid="uid://c7juil71a6nx2" path="res://special_effects/particles/process_materials/pm_fire.tres" id="3_1r2sc"]
[ext_resource type="QuadMesh" uid="uid://ddr2a7sawic5o" path="res://special_effects/particles/pass_meshes/fire_fusil.tres" id="4_16wmd"]
[ext_resource type="Material" uid="uid://ce8vtllsxi8um" path="res://special_effects/particles/process_materials/pm_smoke.tres" id="5_4rt8o"]
[ext_resource type="QuadMesh" uid="uid://bao8ik6crkc77" path="res://special_effects/particles/pass_meshes/smoke_circle.tres" id="5_xd8nh"]

[node name="Fire" instance=ExtResource("1_tjeko")]
script = ExtResource("1_ag3wp")
fire_base_particle_count = 10
fire_root_particle_slope = 30.0
smoke_base_particle_count = 10
smoke_root_particle_slope = 30.0

[node name="Fire" type="GPUParticles3D" parent="." index="0"]
amount = 16
lifetime = 0.7
visibility_aabb = AABB(-1.55068, -0.847157, -1.12949, 2.66807, 4.38408, 2.55932)
process_material = ExtResource("3_1r2sc")
draw_pass_1 = ExtResource("4_16wmd")

[node name="Smoke" type="GPUParticles3D" parent="." index="1"]
amount = 16
visibility_aabb = AABB(-1.31367, -0.999018, -1.5054, 2.6381, 4.54097, 3.12867)
process_material = ExtResource("5_4rt8o")
draw_pass_1 = ExtResource("5_xd8nh")
