[gd_scene load_steps=3 format=3 uid="uid://6o8w7tel57b0"]

[ext_resource type="PackedScene" uid="uid://bvw235bw6dknv" path="res://motion_ai/common/tasking/actions/core/ActionTemplate.tscn" id="1"]
[ext_resource type="Script" path="res://motion_ai/common/tasking/actions/DemandAnimation.gd" id="2"]

[node name="DemandAnimation" instance=ExtResource("1")]
script = ExtResource("2")
animation_key = ""
use_direction = true
