[gd_scene load_steps=2 format=3 uid="uid://d135sk87u60gf"]

[ext_resource type="Script" path="res://special_effects/particles/ScaleReactiveParticleSystem.gd" id="1_kmhea"]

[node name="ScaleReactiveParticleSystem" type="Node3D"]
script = ExtResource("1_kmhea")
