[gd_scene load_steps=2 format=3 uid="uid://c3ehgsq3wvspb"]

[ext_resource type="Script" path="res://motion_ai/common/KinematicCore.gd" id="1"]

[node name="KinematicCore" type="Node"]
script = ExtResource("1")
