[gd_resource type="SpriteFrames" load_steps=7 format=3]

[ext_resource type="Texture2D" uid="uid://bgcupagjs1q33" path="res://scenery/trees/textures/ztree01_fc_a.png" id="1"]
[ext_resource type="Texture2D" uid="uid://gm2bv2ve46a2" path="res://scenery/trees/textures/ztree01_fc_c.png" id="2"]
[ext_resource type="Texture2D" uid="uid://63rwnalaulf2" path="res://scenery/trees/textures/ztree01_fc_b.png" id="3"]
[ext_resource type="Texture2D" uid="uid://bhjmdu5suw3ua" path="res://scenery/trees/textures/ztree01_fc_b_fade.png" id="4"]
[ext_resource type="Texture2D" uid="uid://dgp6icg7dtxe0" path="res://scenery/trees/textures/ztree01_fc_c_fade.png" id="5"]
[ext_resource type="Texture2D" uid="uid://cbd1brjlg8g6g" path="res://scenery/trees/textures/ztree01_fc_a_fade.png" id="6"]

[resource]
animations = [ {
"frames": [ ExtResource( 1 ), ExtResource( 6 ), ExtResource( 3 ), ExtResource( 4 ), ExtResource( 2 ), ExtResource( 5 ) ],
"loop": true,
"name": "default",
"speed": 1.0
}, {
"frames": [ ExtResource( 1 ) ],
"loop": true,
"name": "pine_fc_a",
"speed": 5.0
}, {
"frames": [ ExtResource( 2 ) ],
"loop": true,
"name": "pine_fc_c",
"speed": 5.0
}, {
"frames": [ ExtResource( 3 ) ],
"loop": true,
"name": "pine_fc_b",
"speed": 5.0
}, {
"frames": [ ExtResource( 5 ) ],
"loop": true,
"name": "pine_fc_c_fade",
"speed": 5.0
}, {
"frames": [ ExtResource( 6 ) ],
"loop": true,
"name": "pine_fc_a_fade",
"speed": 5.0
}, {
"frames": [ ExtResource( 4 ) ],
"loop": true,
"name": "pine_fc_b_fade",
"speed": 5.0
} ]
