[gd_resource type="StandardMaterial3D" load_steps=2 format=2]

[ext_resource path="res://textures/terrain/valve_grid_water.png" type="Texture2D" id=1]




[resource]
flags_world_triplanar = true
albedo_texture = ExtResource( 1 )
uv1_scale = Vector3( 0.05, 0.05, 0.05 )
uv1_offset = Vector3( 0.5, 0.5, 0.5 )
uv1_triplanar = true
