[gd_scene load_steps=6 format=3 uid="uid://bhk1p70fypxbo"]

[ext_resource type="Texture2D" uid="uid://d1e5tn6l38nw0" path="res://motion_ai/pawn/pawn_corpse.png" id="1"]
[ext_resource type="Script" path="res://props/Prop.gd" id="1_pkfrs"]
[ext_resource type="Script" path="res://theater/TheaterPiece.gd" id="2_1cppm"]

[sub_resource type="Resource" id="Resource_4uh43"]
resource_local_to_scene = true
script = ExtResource("2_1cppm")
use_dying_state = true
allow_life_regression = false
remove_on_death = true

[sub_resource type="BoxShape3D" id="1"]
size = Vector3(0.514, 0.801, 0.025)

[node name="PawnCorpse" type="RigidBody3D"]
transform = Transform3D(0.707107, 0, 0.707107, 0, 1, 0, -0.707107, 0, 0.707107, 0, 0, 0)
collision_layer = 2048
collision_mask = 2049
script = ExtResource("1_pkfrs")
display_name = "Pawn Corpse"
unique_key = "pawn_corpse"
stack_rotation = Vector3(-90, 45, 0)
theater_piece = SubResource("Resource_4uh43")

[node name="Sprite3D" type="Sprite3D" parent="."]
pixel_size = 0.007
alpha_cut = 2
texture_filter = 4
texture = ExtResource("1")

[node name="CollisionShape3D" type="CollisionShape3D" parent="."]
shape = SubResource("1")
